wave.vcd
$date
     Apr 08, 2024       10:41:48
$end

$version
 SystemC 2.3.3-Accellera --- Apr  6 2024 12:09:23
$end

$timescale
     1 ps
$end

$scope module SystemC $end
$var wire    1  aaaaa  a       $end
$var wire    1  aaaab  b       $end
$var wire    1  aaaac  cin       $end
$var wire    1  aaaad  sum       $end
$var wire    1  aaaae  cout       $end
$upscope $end
$enddefinitions  $end

$comment
All initial values are dumped below at time 0 sec = 0 timescale units.
$end

$dumpvars
0aaaaa
0aaaab
0aaaac
0aaaad
0aaaae
$end

#5000000
1aaaaa
1aaaad

#10000000
0aaaaa
1aaaab

#15000000
1aaaaa
0aaaad
1aaaae

#20000000
0aaaaa
0aaaab
1aaaac
1aaaad
0aaaae

#25000000
1aaaaa
0aaaad
1aaaae

#30000000
0aaaaa
1aaaab

#35000000
1aaaaa
1aaaad

#40000000
0aaaaa
0aaaab
0aaaac
0aaaad
0aaaae

#45000000
1aaaaa
1aaaad

#50000000
0aaaaa
1aaaab

#55000000
1aaaaa
0aaaad
1aaaae

#60000000
0aaaaa
0aaaab
1aaaac
1aaaad
0aaaae

#65000000
1aaaaa
0aaaad
1aaaae

#70000000
0aaaaa
1aaaab

#75000000
1aaaaa
1aaaad

#80000000
0aaaaa
0aaaab
0aaaac
0aaaad
0aaaae

#85000000
1aaaaa
1aaaad

#90000000
0aaaaa
1aaaab

#95000000
1aaaaa
0aaaad
1aaaae

